{
	"page":2,
	"per":25,
	"uri":"https://api.pledgeling.com/v1/organizations?page=2",
	"next":"https://api.pledgeling.com/v1/organizations?page=3",
	"previous":"https://api.pledgeling.com/v1/organizations?page=1",
	"total_count":1312231,
	"results":[
				{
					"id":"1177032a-2040-4bd5-b127-50f1ef97cfc2",
					"name":"Pledgeling Alzheimer's Research Fund",
					"alias":"",
					"ngo_id":"fund-0009",
					"mission":"Support Alzheimer’s Research: In the past this fund has donated to national organizations involved in alzheimer’s research, like the Cure Alzheimer’s Fund.",
					"street1":"1638 Abbot Kinney Blvd, 3rd floor",
					"street2":"",
					"city":"Venice",
					"region":"CA",
					"postal_code":"90291",
					"country":"US",
					"lat":"33.989369",
					"lon":"-118.4633999",
					"website_url":"https://www.pledgeling.org",
					"profile_url":"https://www.pledgeling.com/organizations/fund-0009/Pledgeling-Alzheimers-Research-Fund",
					"logo_url":"https://res.cloudinary.com/pledgeling/w_266%2Ch_266%2Cc_fit/prod-media/images%2Fnpos%2Flogos%2F2017%2F3%2F27%2FPledgeling_Logomark.jpg"
				},
				{
					"id":"f437d74a-6261-4c80-ac0e-3bb2e58dada7",
					"name":"Dodo Heroes Season 1 Fund",
					"alias":"",
					"ngo_id":"fund-5009",
					"mission":"Dodo Heroes fund to support multiple animal nonprofits featured in season 1 (2018). Launch campaign:\n\n- Nowzad\n- ADI (Animal Defenders International)\n- Living with 												Elephants\n- Boon Lott Elephant Sanctuary\n- SOS Ponso\n- Magnetic Island Koala Hospital",
					"street1":"",
					"street2":"",
					"city":"",
					"region":"",
					"postal_code":"",
					"country":"US",
					"lat":null,
					"lon":null,
					"website_url":"http://www.animalplanet.com/dodo-heroes-how-to-help/",
					"profile_url":"https://www.pledgeling.com/organizations/fund-5009/dodo-heroes-fund",
					"logo_url":"https://res.cloudinary.com/pledgeling/w_266%2Ch_266%2Cc_fit/prod-media/images%2Fnpos%2Flogos%2F2018%2F6%2F1%2Fe22aede21b730240.png"
				},
				{
					"id":"db9574af-cfd6-4920-999e-c7860e57213b",
					"name":"Akshara Foundation",
					"alias":"",
					"ngo_id":"30-0108263-497",
					"mission":"Akshara Foundation's mission is to ensure that Every Child is in School and Learning Well. Our work focuses on universalizing primary education. We work both at the primary and pre-primary levels. We work towards our goals through innovative, scalable models.We believe that our generation has a unique opportunity to bridge gaps by bringing equitable access to high-quality, relevant education to all. We emphasize on performance management,technology usage and creating volunteering opportunities.","street1":"Akshara Foundation, No. 621, 5th Main Road,",
					"street2":"OMBR Layout,",
					"city":"Bangalore",
					"region":"Karnataka",
					"postal_code":"560043",
					"country":"IN",
					"lat":null,
					"lon":null,
					"website_url":"http://www.akshara.org.in","profile_url":"https://www.pledgeling.com/organizations/30-0108263-497/akshara-foundation","logo_url":"https://res.cloudinary.com/pledgeling/w_266%2Ch_266%2Cc_fit/prod-media/images%2Fnpos%2Flogos%2F2018%2F9%2F4%2F3f8e645e684e4526.jpg"},{"id":"408326cf-a89f-48af-8bb5-687f4628a6da","name":"Te Aud Romania","alias":"","ngo_id":"30-0108263-1876","mission":"Te Aud Romania was established to give Romania's orphans and disadvantaged children a fighting chance at succeed in life.  To do this, we must keep them in school and equip them for a chance at securing employment.  Unfortunately, this is not enough for children who have suffered such immense devastation and emotional damage. These children desperately need our help and support. Help to heal and build self-esteem and confidence to even begin to feel normal like a child should.","street1":"Ion Creanga 15","street2":"","city":"Gura Humorului","region":"","postal_code":"725300","country":"RO","lat":null,"lon":null,"website_url":"http://www.teaudromania.com","profile_url":"https://www.pledgeling.com/organizations/30-0108263-1876/te-aud-romania","logo_url":"https://res.cloudinary.com/pledgeling/w_266%2Ch_266%2Cc_fit/prod-media/images%2Fnpos%2Flogos%2F2018%2F9%2F4%2F5560844b62bf9d97.jpg"},{"id":"732160cf-9fbe-4220-baaf-978d80c6f44a","name":"Child Rights and You","alias":"","ngo_id":"30-0108263-868","mission":"To enable people to take responsibility for the situation of the deprived Indian child and so motivate them to seek resolution through individual and collective action thereby enabling children to realise their full potential. And people to discover their potential for action and change. To enable peoples' collectives and movements encompassing diverse segments, to pledge their particular strengths, working in partnership to secure, protect and honour the rights of India's children.","street1":"189/A, Anand Estate","street2":"Sane Guruji Marg","city":"Mumbai","region":"Maharashtra","postal_code":"400011","country":"IN","lat":null,"lon":null,"website_url":"http://www.cry.org","profile_url":"https://www.pledgeling.com/organizations/30-0108263-868/child-rights-and-you","logo_url":"https://res.cloudinary.com/pledgeling/w_266%2Ch_266%2Cc_fit/prod-media/images%2Fnpos%2Flogos%2F2018%2F9%2F4%2F6aae0485b767b7d3.jpg"},{"id":"303af3b0-3b2a-4dab-b5f7-82bf5fbb672a","name":"Lonely Whale","alias":"","ngo_id":"95-4116679-005","mission":"Dedicated to bringing people closer to the world’s oceans through education and awareness, inspiring empathy and action for ocean health and the well being of marine wildlife.","street1":"23432 Calabasas Road","street2":"Suite A","city":"Calabasas","region":"CA","postal_code":"91302","country":"US","lat":"34.1583637","lon":"-118.6371933","website_url":"https://www.lonelywhale.org/","profile_url":"https://www.pledgeling.com/organizations/95-4116679-005/lonely-whale","logo_url":"https://res.cloudinary.com/pledgeling/w_266%2Ch_266%2Cc_fit%2Cf_jpg/prod-media/images%2Fnpos%2Flogos%2F2018%2F10%2F26%2Ff737e30857d24267.jpeg"},{"id":"c2feda2a-30c3-42a6-a3ab-ab1bbb7d9bb2","name":"Amar Seva Sangam","alias":"","ngo_id":"30-0108263-1286","mission":"To empower the disabled citizens by establishing a \"Valley for the Disabled' as a Rehabilitation and development center for the region and to develop models for self-help initiatives by integrating the disabled individuals with the society for improved living conditions in the village.","street1":"Sulochana Gardens, 7-4-104B,","street2":"Tenkasi Road","city":"Ayikudy","region":"Tamil Nadu","postal_code":"627852","country":"IN","lat":null,"lon":null,"website_url":"http://www.amarseva.org","profile_url":"https://www.pledgeling.com/organizations/30-0108263-1286/amar-seva-sangam","logo_url":"https://res.cloudinary.com/pledgeling/w_266%2Ch_266%2Cc_fit/prod-media/images%2Fnpos%2Flogos%2F2018%2F9%2F4%2Fc9aa5acf803e2ce5.jpg"},{"id":"dcb4e12e-de30-4a87-a35c-3a245491d79f","name":"IUCN - Internat. Union for Conservation of Nature","alias":"","ngo_id":"30-0108263-1031","mission":"IUCN is a membership Union uniquely composed of both government and civil society organisations. It provides public, private and non-governmental organisations with the knowledge and tools that enable human progress, economic development and nature conservation to take place together.\n\nCreated in 1948, IUCN is now the world's largest and most diverse environmental network, harnessing the knowledge, resources and reach of 1,300 Member organisations and some 15,000 experts. It is a leading provider of conservation data, assessments and analysis. Its broad membership enables IUCN to fill the role of incubator and trusted repository of best practices, tools and international standards.\n\nIUCN provides a neutral space in which diverse stakeholders including governments, NGOs, scientists, businesses, local communities, indigenous peoples organisations and others can work together to forge and implement solutions to environmental challenges and achieve sustainable development.\n\nWorking with many partners and supporters, IUCN implements a large and diverse portfolio of conservation projects worldwide. Combining the latest science with the traditional knowledge of local communities, these projects work to reverse habitat loss, restore ecosystems and improve people's well-being.","street1":"Rue Mauverney 28","street2":"","city":"Gland","region":"Vaud","postal_code":"1196","country":"CH","lat":null,"lon":null,"website_url":"http://www.iucn.org/","profile_url":"https://www.pledgeling.com/organizations/30-0108263-1031/iucn-internat-union-for-conservation-of-nature","logo_url":"https://res.cloudinary.com/pledgeling/w_266%2Ch_266%2Cc_fit/prod-media/images%2Fnpos%2Flogos%2F2018%2F9%2F4%2F2e3527b2588c6984.jpg"},{"id":"0154f814-4094-4cc6-8aeb-f4aaf8520cf4","name":"Vigilant Love","alias":"","ngo_id":"95-3854152-001","mission":"Building upon the legacy of Muslim American and Japanese American solidarity since 9/11, #VigilantLOVE is a healing and arts-driven organization that counters mainstream narratives of insularity. #VigilantLOVE organizes grassroots movement around Islamophobic ideologies that inflict personal, communal and state violence by creating spaces for connection amongst those identifying as Japanese American, Muslim American, Black, South Asian, Arab, East Asian, queer, trans, and interfaith accomplices.","street1":"℅ AAAJ","street2":"1145 Wilshire Blvd., 2nd Floor","city":"Los Angeles","region":"CA","postal_code":"90017","country":"US","lat":"34.0531296","lon":"-118.2644115","website_url":"https://www.vigilantlove.org","profile_url":"https://www.pledgeling.com/organizations/95-3854152-001/vigilant-love","logo_url":"https://res.cloudinary.com/pledgeling/w_266%2Ch_266%2Cc_fit/prod-media/images%2Fnpos%2Flogos%2F2018%2F3%2F20%2Fd2160d1f4fc1832f.png"},{"id":"0d17cbe5-7e9a-40c4-8079-999b91b66407","name":"Triumph Over Alzheimer's","alias":"","ngo_id":"75-2890371-001","mission":"The Triumph Over Alzheimer’s Foundation is committed to funding advanced research and uncovering solutions to prevent, delay or successfully treat the sixth leading cause of death in our country.","street1":"","street2":"","city":"","region":"","postal_code":"","country":"US","lat":null,"lon":null,"website_url":"https://triumphoveralzheimers.org/","profile_url":"https://www.pledgeling.com/organizations/75-2890371-001/triumph-over-alzheimer-s","logo_url":"https://res.cloudinary.com/pledgeling/w_266%2Ch_266%2Cc_fit/prod-media/images%2Fnpos%2Flogos%2F2019%2F10%2F9%2Faa4559336b692cf0.png"},{"id":"5aa7b2de-066f-49de-82eb-dd589e06e428","name":"The University of Texas MD Anderson Cancer Center","alias":"","ngo_id":"74-6001118","mission":"The mission of The University of Texas MD Anderson Cancer Center is to eliminate cancer in Texas, the nation and the world through outstanding programs that integrate patient care, research and prevention and through education for undergraduate and graduate students, trainees, professionals, employees and the public.","street1":"PO Box 4486","street2":"","city":"Houston","region":"TX","postal_code":"77210","country":"US","lat":"29.83399","lon":"-95.434241","website_url":"http://www.mdanderson.org/gifts","profile_url":"https://www.pledgeling.com/organizations/74-6001118/the-university-of-texas-md-anderson-cancer-center","logo_url":"https://res.cloudinary.com/pledgeling/w_266%2Ch_266%2Cc_fit/prod-media/images%2Fnpos%2Flogos%2F2016%2F02%2F05%2Fmda_top_logo_redesign.5693298f8f06e63268.jpg"},{"id":"55a72e49-0edc-4c3b-a3e2-c37569fbb608","name":"SmashSMARD","alias":"","ngo_id":"82-5388567","mission":"smashSMARD is a non-profit 501(c)3 organization whose mission is to increase awareness of SMARD1 and the IGHMBP2 gene mutation in order to fund research that will lead to treatments and cures.","street1":"3 Londonderry Lane","street2":"","city":"Lincolnshire","region":"IL","postal_code":"60069","country":"US","lat":"42.1894932","lon":"-87.9074486","website_url":"http://smashsmard.org","profile_url":"https://www.pledgeling.com/organizations/82-5388567/smashsmard","logo_url":"https://res.cloudinary.com/pledgeling/w_266%2Ch_266%2Cc_fit/prod-media/images%2Fnpos%2Flogos%2F2019%2F5%2F9%2Fbe18b5e08581b436.png"},{"id":"dd0adb73-a107-4e6e-bd9a-baf9cabe7630","name":"Dawood Global Foundation - Educate a Girl","alias":"","ngo_id":"30-0108263-1285","mission":"To educate 1000 girls in need in Pakistan with vocationally training in media studies at the Institute of Journalism Karachi followed by grooming in professionalism, dressing at the work place, sexual harassment protection and boosting self-esteem.  Top students are placed in top media outlets and we work to place others in multi-nationals and other key opportunities.","street1":"G3, Ground Floor, BRR Tower","street2":"Hassan Ali Street, off I I Chundrigar Road","city":"Karachi","region":"Sindh","postal_code":"74000","country":"PK","lat":null,"lon":null,"website_url":"http://www.dawoodglobal.org","profile_url":"https://www.pledgeling.com/organizations/30-0108263-1285/dawood-global-foundation-educate-a-girl","logo_url":"https://res.cloudinary.com/pledgeling/w_266%2Ch_266%2Cc_fit/prod-media/images%2Fnpos%2Flogos%2F2018%2F9%2F4%2F4b2abbb0a9ce2e07.jpg"},{"id":"90d006e3-2cb6-4c3d-8654-f10d66b20e83","name":"IBO ITALIA","alias":"","ngo_id":"30-0108263-854","mission":"to favour access to education and vocational training in developing countries, with local communities' involvement and particiaption. to develop a social awareness of the young through experiences of condivision, work in favour of the needy. our goals are: make families aware of the importance of their children's school education; set up infrastructions to satisfy primary needs and facilitate school attendance; provide adequate training for teachers; favour local employement through vocational courses; favour the participation to experiences of voluntary work; build network of  volunteers' groups.","street1":"via Montebello, 46/a","street2":"","city":"Ferrara","region":"Ferrara","postal_code":"44121","country":"IT","lat":null,"lon":null,"website_url":"http://www.iboitalia.org","profile_url":"https://www.pledgeling.com/organizations/30-0108263-854/ibo-italia","logo_url":"https://res.cloudinary.com/pledgeling/w_266%2Ch_266%2Cc_fit/prod-media/images%2Fnpos%2Flogos%2F2018%2F9%2F4%2Ff60301f68f066299.jpg"},{"id":"8a768c8e-8eb7-4723-8613-a6cf588bc2e2","name":"Trenton Area Habitat for Humanity","alias":"Trenton Habitat for Humanity, Habitat for Humanity of Trenton, Habitat for Humanity Trenton","ngo_id":"22-2736214","mission":"Seeking to put God’s love into action, Habitat for Humanity brings people together to build homes, communities and hope.","street1":"530 Route 38 E","street2":"","city":"Maple Shade","region":"NJ","postal_code":"08052-2036","country":"US","lat":"40.232114","lon":"-74.744388","website_url":"http://www.habitatta.org/","profile_url":"https://www.pledgeling.com/organizations/22-2736214/trenton-area-habitat-for-humanity","logo_url":"https://res.cloudinary.com/pledgeling/w_266%2Ch_266%2Cc_fit%2Cf_jpg/prod-media/images%2Fnpos%2Flogos%2F2015%2F11%2F09%2Fdownload_2.jpeg"},{"id":"6aa80fcc-a83e-4da5-abe7-c7b552eec66b","name":"Life with Cancer","alias":"INOVA Life With Cancer","ngo_id":"54-1071867-001","mission":"Life with Cancer’s purpose is to enhance the quality of life of those affected by cancer by providing evidence-based education, support, wellness programs and integrative therapies.","street1":"","street2":"","city":"","region":"","postal_code":"","country":"US","lat":null,"lon":null,"website_url":"https://www.lifewithcancer.org","profile_url":"https://www.pledgeling.com/organizations/54-1071867-001/life-with-cancer","logo_url":"https://res.cloudinary.com/pledgeling/w_266%2Ch_266%2Cc_fit/prod-media/images%2Fnpos%2Flogos%2F2019%2F5%2F15%2Fd0cd2e404eda82d7.png"},{"id":"a9ff648a-2cad-4550-bc5f-da208a5421e7","name":"Indian Dreams Foundation","alias":"","ngo_id":"30-0108263-406","mission":"Vision:\n\n\"A healthy, educated and developed society\".\n\nMission\n\nOur mission is what we work towards achieving every single day at grass root level to eradicate illiteracy and gender discrimination in underprivileged communities by educating them and making them aware of the society.","street1":"503, Space Tower-1, Neerav Nikunj Phase-1","street2":"Sikandra","city":"Agra","region":"Uttar Pradesh","postal_code":"282007","country":"IN","lat":null,"lon":null,"website_url":"http://www.pledgeling.com/organizations/30-0108263-406/indian-dreams-foundation","profile_url":"https://www.pledgeling.com/organizations/30-0108263-406/indian-dreams-foundation","logo_url":"https://res.cloudinary.com/pledgeling/w_266%2Ch_266%2Cc_fit/prod-media/images%2Fnpos%2Flogos%2F2018%2F9%2F4%2F4ae6447a7ba81f15.jpg"},{"id":"c8d2653f-4e67-4360-bc2a-fae0b9bb200d","name":"Pledgeling Autism Fund","alias":"","ngo_id":"fund-0010","mission":"Support those with Autism: In the past this fund has contributed to organizations supporting therapy for those with Autism, like ACT Today.","street1":"1638 Abbot Kinney Blvd, 3rd floor","street2":"","city":"Venice","region":"CA","postal_code":"90291","country":"US","lat":"33.989369","lon":"-118.4633999","website_url":"https://www.pledgeling.org","profile_url":"https://www.pledgeling.com/organizations/fund-0010/Pledgeling-Autism-Fund","logo_url":"https://res.cloudinary.com/pledgeling/w_266%2Ch_266%2Cc_fit/prod-media/images%2Fnpos%2Flogos%2F2017%2F3%2F27%2FPledgeling_Logomark.jpg"},{"id":"e8b02d8e-1d86-4c34-ad80-c0d5b06dbbdd","name":"Las Fotos Project","alias":"","ngo_id":"95-4302067-003","mission":"Las Fotos Project is a community-based nonprofit organization that inspires teenage girls through photography, mentorship, and self-expression. Offering year-round programming, we provide girls with access to professional cameras, quality instruction and workshops that encourage them to explore their identity, learn about new cultures, build leadership and advocacy skills, and strengthen their social and emotional well-being. Every year we mentor hundreds of girls from communities across Los Angeles.","street1":"","street2":"","city":"Los Angeles","region":"CA","postal_code":"","country":"US","lat":null,"lon":null,"website_url":"http://lasfotosproject.org/","profile_url":"https://www.pledgeling.com/organizations/95-4302067-003/las-fotos-project","logo_url":"https://res.cloudinary.com/pledgeling/w_266%2Ch_266%2Cc_fit/prod-media/images%2Fnpos%2Flogos%2F2019%2F2%2F25%2F72e920b16714991a.png"},{"id":"8d968853-1000-424a-b679-314347dc561a","name":"Taiwan Fund for Children and Families","alias":"","ngo_id":"30-0108263-1417","mission":"TFCF is a non-government organization that dedicates itself to award needy children and their families with welfare and benefits. From the financial support through foreign donors in the very early beginning, we are now a self-independent organization whose mission and vision still remain on the consideration of needy children's benefits. We aim at promoting and advocating for the wellbeing of children, youth, and underprivileged families. We hope to be the beacon of hope to assist those needy children and their families regardless of the religion, ethnics or gender.","street1":"12F, No. 234, Min-Chuan Road","street2":"","city":"Taichung","region":"","postal_code":"40341","country":"TW","lat":null,"lon":null,"website_url":"http://www.ccf.org.tw/","profile_url":"https://www.pledgeling.com/organizations/30-0108263-1417/taiwan-fund-for-children-and-families","logo_url":"https://res.cloudinary.com/pledgeling/w_266%2Ch_266%2Cc_fit/prod-media/images%2Fnpos%2Flogos%2F2018%2F9%2F4%2F3ea1e505ddf5d937.jpg"},{"id":"33969733-5af8-4431-9f71-77bc8bcb2c8b","name":"Pledgeling Foundation","alias":"","ngo_id":"46-2440594","mission":"Pledge To Do Good! ","street1":"2100 Abbot Kinney Blvd","street2":"Unit E","city":"Venice","region":"CA","postal_code":"90291","country":"US","lat":"33.9882112","lon":"-118.4596612","website_url":"https://www.pledgelingfoundation.org","profile_url":"https://www.pledgeling.com/organizations/46-2440594/pledgeling-foundation","logo_url":"https://res.cloudinary.com/pledgeling/w_266%2Ch_266%2Cc_fit/prod-media/images%2Fnpos%2Flogos%2F2016%2F9%2F30%2FqQFF0aZZRpur7Y4oCeIY_pledgeling.png"},{"id":"9a560cb9-c555-4d29-9970-d6f473099315","name":"Twenty-One Senses","alias":"","ngo_id":"83-2832419","mission":"Most community and enrichment spaces are built for nero-typical kids. There is very little, if any, accommodation for kids with sensory-sensitivities. This results in most activities either marginally or totally inaccessible to sensory sensitive kids. We’re hoping to make life just a little bit easier for them and their families. We’re looking to do this in two ways:\n\n-Provide a space for sensory sensitive kids to engage in community and enrichment opportunities with their peers in a sensory supported environment.\n\n-Create a website with information about sensory inputs and supports in public environments","street1":"4923 W Balmoral Ave.","street2":"","city":"Chicago","region":"IL","postal_code":"60630","country":"US","lat":"41.9787156","lon":"-87.7515473","website_url":"https://twentyonesenses.org/","profile_url":"https://www.pledgeling.com/organizations/83-2832419/Twenty-One-Senses","logo_url":"https://res.cloudinary.com/pledgeling/w_266%2Ch_266%2Cc_fit/prod-media/images%2Fnpos%2Flogos%2F2019%2F8%2F30%2F39ee727e03009ef1.png"},{"id":"f3a124fb-6f4d-43f4-8508-9da9ccbcaf62","name":"Bal Asha Trust","alias":"","ngo_id":"30-0108263-1259","mission":"\"Bal Asha Trust believes every vulnerable child has the right to a brighter tomorrow.\n\nOur charitable organization advocates for the emotional and physical safety of children uprooted by destitution. \n\nWe provide children with access to a safe home, nutrition, quality medical care, education, recreation and rehabilitation. \n\nBal Asha also places children in stable family environments by reuniting them with lost relatives or finding loving families through legal adoption. \n\nWe aim to ensure the development of children through special programs such as education sponsorship and developmental centres for disable children. \n\nAdditionally, our dedicated team of professionals strives to spread local and global awareness of the many challenges faced by these children and their families. \n\nAbove all, we believe in empowering children with hope and better future to each child in need of care and protection.\"","street1":"Bal Asha Trust, Anand Niketan KGVM, Rakhangi Chowk, Dr. E. Moses Road","street2":"Mahalaxmi,","city":"Mumbai","region":"Maharashtra","postal_code":"400011","country":"IN","lat":null,"lon":null,"website_url":"http://www.balashatrust.org","profile_url":"https://www.pledgeling.com/organizations/30-0108263-1259/bal-asha-trust","logo_url":"https://res.cloudinary.com/pledgeling/w_266%2Ch_266%2Cc_fit/prod-media/images%2Fnpos%2Flogos%2F2018%2F9%2F4%2Fee5e1da14c3327f0.jpg"},{"id":"9981b0a2-aabb-4099-af94-1952ca8f3ae3","name":"Co-operative Development Foundation of Canada","alias":"","ngo_id":"30-0108263-1869","mission":"To raise funds in support of co-operative and credit union development programming to reduce global poverty.","street1":"400 - 275 Bank St","street2":"","city":"Ottawa","region":"ON","postal_code":"K2P 2L6","country":"CA","lat":null,"lon":null,"website_url":"http://cdfcanada.coop/","profile_url":"https://www.pledgeling.com/organizations/30-0108263-1869/co-operative-development-foundation-of-canada","logo_url":"https://res.cloudinary.com/pledgeling/w_266%2Ch_266%2Cc_fit/prod-media/images%2Fnpos%2Flogos%2F2018%2F9%2F4%2Fdc476b77b33ac83f.jpg"},{"id":"d55f43f8-7391-40df-89f1-07537bdd7264","name":"TVN Foundation","alias":"","ngo_id":"00-000000-TVN","mission":"TVN Foundation's emphasis on health and social services is primarily focused on providing support to people suffering from incurable diseases being in need of expensive medical treatment. It supports a variety of projects that enhance the quality of life of disadvantaged people by covering the costs of therapeutic treatments and rehabilitation.","street1":"Wiertnicza 166","street2":"","city":"Warszawa","region":"","postal_code":"02-952","country":"PL","lat":"52.1792656","lon":"21.0726262","website_url":"https://fundacja.tvn.pl/","profile_url":"https://www.pledgeling.com/organizations/00-000000-TVN/tvn-foundation","logo_url":"https://res.cloudinary.com/pledgeling/w_266%2Ch_266%2Cc_fit/prod-media/images%2Fnpos%2Flogos%2F2018%2F11%2F13%2F41ddcf42c6a0855b.jpg"}]}'https://api.pledgeling.com/v1/organizations?page=2'
